/*
WARNING: Do NOT edit the input and output ports in this file in a text
editor if you plan to continue editing the block that represents it in
the Block Editor! File corruption is VERY likely to occur.
*/
/*
Copyright (C) 2023  Intel Corporation. All rights reserved.
Your use of Intel Corporation's design tools, logic functions 
and other software and tools, and any partner logic 
functions, and any output files from any of the foregoing 
(including device programming or simulation files), and any 
associated documentation or information are expressly subject 
to the terms and conditions of the Intel Program License 
Subscription Agreement, the Intel Quartus Prime License Agreement,
the Intel FPGA IP License Agreement, or other applicable license
agreement, including, without limitation, that your use is for
the sole purpose of programming logic devices manufactured by
Intel and sold by Intel or its authorized distributors.  Please
refer to the applicable agreement for further details, at
https://fpgasoftware.intel.com/eula.
*/
(header "graphic" (version "1.4"))
(pin
	(input)
	(rect -64 664 104 680)
	(text "INPUT" (rect 125 0 153 10)(font "Arial" (font_size 6)))
	(text "i_RegA[0..17]" (rect 5 0 68 12)(font "Intel Clear" ))
	(pt 168 8)
	(drawing
		(line (pt 84 12)(pt 109 12))
		(line (pt 84 4)(pt 109 4))
		(line (pt 113 8)(pt 168 8))
		(line (pt 84 12)(pt 84 4))
		(line (pt 109 4)(pt 113 8))
		(line (pt 109 12)(pt 113 8))
	)
	(text "VCC" (rect 128 7 148 17)(font "Arial" (font_size 6)))
)
(pin
	(input)
	(rect -64 680 104 696)
	(text "INPUT" (rect 125 0 153 10)(font "Arial" (font_size 6)))
	(text "i_RegQ[0..17]" (rect 5 0 69 12)(font "Intel Clear" ))
	(pt 168 8)
	(drawing
		(line (pt 84 12)(pt 109 12))
		(line (pt 84 4)(pt 109 4))
		(line (pt 113 8)(pt 168 8))
		(line (pt 84 12)(pt 84 4))
		(line (pt 109 4)(pt 113 8))
		(line (pt 109 12)(pt 113 8))
	)
	(text "VCC" (rect 128 7 148 17)(font "Arial" (font_size 6)))
)
(pin
	(input)
	(rect -64 504 104 520)
	(text "INPUT" (rect 125 0 153 10)(font "Arial" (font_size 6)))
	(text "i_Clock" (rect 5 0 43 12)(font "Arial" ))
	(pt 168 8)
	(drawing
		(line (pt 84 12)(pt 109 12))
		(line (pt 84 4)(pt 109 4))
		(line (pt 113 8)(pt 168 8))
		(line (pt 84 12)(pt 84 4))
		(line (pt 109 4)(pt 113 8))
		(line (pt 109 12)(pt 113 8))
	)
	(text "VCC" (rect 128 7 148 17)(font "Arial" (font_size 6)))
)
(pin
	(input)
	(rect -64 520 104 536)
	(text "INPUT" (rect 125 0 153 10)(font "Arial" (font_size 6)))
	(text "i_Reset" (rect 5 0 40 12)(font "Intel Clear" ))
	(pt 168 8)
	(drawing
		(line (pt 84 12)(pt 109 12))
		(line (pt 84 4)(pt 109 4))
		(line (pt 113 8)(pt 168 8))
		(line (pt 84 12)(pt 84 4))
		(line (pt 109 4)(pt 113 8))
		(line (pt 109 12)(pt 113 8))
	)
	(text "VCC" (rect 128 7 148 17)(font "Arial" (font_size 6)))
)
(pin
	(input)
	(rect -64 536 104 552)
	(text "INPUT" (rect 125 0 153 10)(font "Arial" (font_size 6)))
	(text "i_Start" (rect 5 0 36 12)(font "Intel Clear" ))
	(pt 168 8)
	(drawing
		(line (pt 84 12)(pt 109 12))
		(line (pt 84 4)(pt 109 4))
		(line (pt 113 8)(pt 168 8))
		(line (pt 84 12)(pt 84 4))
		(line (pt 109 4)(pt 113 8))
		(line (pt 109 12)(pt 113 8))
	)
	(text "VCC" (rect 128 7 148 17)(font "Arial" (font_size 6)))
)
(pin
	(input)
	(rect -80 744 104 760)
	(text "INPUT" (rect 141 0 169 10)(font "Arial" (font_size 6)))
	(text "i_AlpMask[0..17]" (rect 5 0 93 12)(font "Arial" ))
	(pt 184 8)
	(drawing
		(line (pt 100 12)(pt 125 12))
		(line (pt 100 4)(pt 125 4))
		(line (pt 129 8)(pt 184 8))
		(line (pt 100 12)(pt 100 4))
		(line (pt 125 4)(pt 129 8))
		(line (pt 125 12)(pt 129 8))
	)
	(text "VCC" (rect 144 7 164 17)(font "Arial" (font_size 6)))
)
(pin
	(input)
	(rect -64 760 104 776)
	(text "INPUT" (rect 125 0 153 10)(font "Arial" (font_size 6)))
	(text "i_Overflow" (rect 5 0 61 12)(font "Arial" ))
	(pt 168 8)
	(drawing
		(line (pt 84 12)(pt 109 12))
		(line (pt 84 4)(pt 109 4))
		(line (pt 113 8)(pt 168 8))
		(line (pt 84 12)(pt 84 4))
		(line (pt 109 4)(pt 113 8))
		(line (pt 109 12)(pt 113 8))
	)
	(text "VCC" (rect 128 7 148 17)(font "Arial" (font_size 6)))
)
(pin
	(input)
	(rect -72 648 104 664)
	(text "INPUT" (rect 133 0 161 10)(font "Arial" (font_size 6)))
	(text "i_AluOp[0..3]" (rect 5 0 74 12)(font "Arial" ))
	(pt 176 8)
	(drawing
		(line (pt 92 12)(pt 117 12))
		(line (pt 92 4)(pt 117 4))
		(line (pt 121 8)(pt 176 8))
		(line (pt 92 12)(pt 92 4))
		(line (pt 117 4)(pt 121 8))
		(line (pt 117 12)(pt 121 8))
	)
	(text "VCC" (rect 136 7 156 17)(font "Arial" (font_size 6)))
)
(pin
	(input)
	(rect -80 696 104 712)
	(text "INPUT" (rect 141 0 169 10)(font "Arial" (font_size 6)))
	(text "i_Memory[0..35]" (rect 5 0 92 12)(font "Arial" ))
	(pt 184 8)
	(drawing
		(line (pt 100 12)(pt 125 12))
		(line (pt 100 4)(pt 125 4))
		(line (pt 129 8)(pt 184 8))
		(line (pt 100 12)(pt 100 4))
		(line (pt 125 4)(pt 129 8))
		(line (pt 125 12)(pt 129 8))
	)
	(text "VCC" (rect 144 7 164 17)(font "Arial" (font_size 6)))
)
(pin
	(input)
	(rect -80 712 104 728)
	(text "INPUT" (rect 141 0 169 10)(font "Arial" (font_size 6)))
	(text "i_CamRow[0..2]" (rect 5 0 88 12)(font "Arial" ))
	(pt 184 8)
	(drawing
		(line (pt 100 12)(pt 125 12))
		(line (pt 100 4)(pt 125 4))
		(line (pt 129 8)(pt 184 8))
		(line (pt 100 12)(pt 100 4))
		(line (pt 125 4)(pt 129 8))
		(line (pt 125 12)(pt 129 8))
	)
	(text "VCC" (rect 144 7 164 17)(font "Arial" (font_size 6)))
)
(pin
	(input)
	(rect -64 728 104 744)
	(text "INPUT" (rect 125 0 153 10)(font "Arial" (font_size 6)))
	(text "i_CamCol[0..2]" (rect 5 0 75 12)(font "Intel Clear" ))
	(pt 168 8)
	(drawing
		(line (pt 84 12)(pt 109 12))
		(line (pt 84 4)(pt 109 4))
		(line (pt 113 8)(pt 168 8))
		(line (pt 84 12)(pt 84 4))
		(line (pt 109 4)(pt 113 8))
		(line (pt 109 12)(pt 113 8))
	)
	(text "VCC" (rect 128 7 148 17)(font "Arial" (font_size 6)))
)
(pin
	(output)
	(rect 1800 392 1976 408)
	(text "OUTPUT" (rect 1 0 39 10)(font "Arial" (font_size 6)))
	(text "o_Ready" (rect 90 0 137 12)(font "Arial" ))
	(pt 0 8)
	(drawing
		(line (pt 0 8)(pt 52 8))
		(line (pt 52 4)(pt 78 4))
		(line (pt 52 12)(pt 78 12))
		(line (pt 52 12)(pt 52 4))
		(line (pt 78 4)(pt 82 8))
		(line (pt 82 8)(pt 78 12))
		(line (pt 78 12)(pt 82 8))
	)
)
(pin
	(output)
	(rect 1800 408 1997 424)
	(text "OUTPUT" (rect 1 0 39 10)(font "Arial" (font_size 6)))
	(text "o_ResultLow[0..17]" (rect 90 0 191 12)(font "Arial" ))
	(pt 0 8)
	(drawing
		(line (pt 0 8)(pt 52 8))
		(line (pt 52 4)(pt 78 4))
		(line (pt 52 12)(pt 78 12))
		(line (pt 52 12)(pt 52 4))
		(line (pt 78 4)(pt 82 8))
		(line (pt 82 8)(pt 78 12))
		(line (pt 78 12)(pt 82 8))
	)
)
(pin
	(output)
	(rect 1800 424 1990 440)
	(text "OUTPUT" (rect 1 0 39 10)(font "Arial" (font_size 6)))
	(text "o_ResultHigh[0..17]" (rect 90 0 184 12)(font "Intel Clear" ))
	(pt 0 8)
	(drawing
		(line (pt 0 8)(pt 52 8))
		(line (pt 52 4)(pt 78 4))
		(line (pt 52 12)(pt 78 12))
		(line (pt 52 12)(pt 52 4))
		(line (pt 78 4)(pt 82 8))
		(line (pt 82 8)(pt 78 12))
		(line (pt 78 12)(pt 82 8))
	)
)
(pin
	(output)
	(rect 1800 440 1976 456)
	(text "OUTPUT" (rect 1 0 39 10)(font "Arial" (font_size 6)))
	(text "o_Carry" (rect 90 0 132 12)(font "Arial" ))
	(pt 0 8)
	(drawing
		(line (pt 0 8)(pt 52 8))
		(line (pt 52 4)(pt 78 4))
		(line (pt 52 12)(pt 78 12))
		(line (pt 52 12)(pt 52 4))
		(line (pt 78 4)(pt 82 8))
		(line (pt 82 8)(pt 78 12))
		(line (pt 78 12)(pt 82 8))
	)
)
(pin
	(output)
	(rect 1800 456 1976 472)
	(text "OUTPUT" (rect 1 0 39 10)(font "Arial" (font_size 6)))
	(text "o_Overflow" (rect 90 0 145 12)(font "Intel Clear" ))
	(pt 0 8)
	(drawing
		(line (pt 0 8)(pt 52 8))
		(line (pt 52 4)(pt 78 4))
		(line (pt 52 12)(pt 78 12))
		(line (pt 52 12)(pt 52 4))
		(line (pt 78 4)(pt 82 8))
		(line (pt 82 8)(pt 78 12))
		(line (pt 78 12)(pt 82 8))
	)
)
(pin
	(output)
	(rect 1800 488 2035 504)
	(text "OUTPUT" (rect 1 0 39 10)(font "Arial" (font_size 6)))
	(text "o_ResultRemainder[0..17]" (rect 90 0 229 12)(font "Arial" ))
	(pt 0 8)
	(drawing
		(line (pt 0 8)(pt 52 8))
		(line (pt 52 4)(pt 78 4))
		(line (pt 52 12)(pt 78 12))
		(line (pt 52 12)(pt 52 4))
		(line (pt 78 4)(pt 82 8))
		(line (pt 82 8)(pt 78 12))
		(line (pt 78 12)(pt 82 8))
	)
)
(pin
	(output)
	(rect 1800 472 1976 488)
	(text "OUTPUT" (rect 1 0 39 10)(font "Arial" (font_size 6)))
	(text "o_AParity" (rect 90 0 141 12)(font "Arial" ))
	(pt 0 8)
	(drawing
		(line (pt 0 8)(pt 52 8))
		(line (pt 52 4)(pt 78 4))
		(line (pt 52 12)(pt 78 12))
		(line (pt 52 12)(pt 52 4))
		(line (pt 78 4)(pt 82 8))
		(line (pt 82 8)(pt 78 12))
		(line (pt 78 12)(pt 82 8))
	)
)
(pin
	(output)
	(rect 1800 520 1976 536)
	(text "OUTPUT" (rect 1 0 39 10)(font "Arial" (font_size 6)))
	(text "o_QParity" (rect 90 0 143 12)(font "Arial" ))
	(pt 0 8)
	(drawing
		(line (pt 0 8)(pt 52 8))
		(line (pt 52 4)(pt 78 4))
		(line (pt 52 12)(pt 78 12))
		(line (pt 52 12)(pt 52 4))
		(line (pt 78 4)(pt 82 8))
		(line (pt 82 8)(pt 78 12))
		(line (pt 78 12)(pt 82 8))
	)
)
(pin
	(output)
	(rect 1800 568 1976 584)
	(text "OUTPUT" (rect 1 0 39 10)(font "Arial" (font_size 6)))
	(text "o_DivideCheck" (rect 90 0 170 12)(font "Arial" ))
	(pt 0 8)
	(drawing
		(line (pt 0 8)(pt 52 8))
		(line (pt 52 4)(pt 78 4))
		(line (pt 52 12)(pt 78 12))
		(line (pt 52 12)(pt 52 4))
		(line (pt 78 4)(pt 82 8))
		(line (pt 82 8)(pt 78 12))
		(line (pt 78 12)(pt 82 8))
	)
)
(pin
	(output)
	(rect 1800 504 1993 520)
	(text "OUTPUT" (rect 1 0 39 10)(font "Arial" (font_size 6)))
	(text "o_CamResult[0..3]" (rect 90 0 187 12)(font "Arial" ))
	(pt 0 8)
	(drawing
		(line (pt 0 8)(pt 52 8))
		(line (pt 52 4)(pt 78 4))
		(line (pt 52 12)(pt 78 12))
		(line (pt 52 12)(pt 52 4))
		(line (pt 78 4)(pt 82 8))
		(line (pt 82 8)(pt 78 12))
		(line (pt 78 12)(pt 82 8))
	)
)
(pin
	(output)
	(rect 1800 536 1976 552)
	(text "OUTPUT" (rect 1 0 39 10)(font "Arial" (font_size 6)))
	(text "o_State[0..2]" (rect 90 0 158 12)(font "Arial" ))
	(pt 0 8)
	(drawing
		(line (pt 0 8)(pt 52 8))
		(line (pt 52 4)(pt 78 4))
		(line (pt 52 12)(pt 78 12))
		(line (pt 52 12)(pt 52 4))
		(line (pt 78 4)(pt 82 8))
		(line (pt 82 8)(pt 78 12))
		(line (pt 78 12)(pt 82 8))
	)
)
(pin
	(output)
	(rect 1800 552 1992 568)
	(text "OUTPUT" (rect 1 0 39 10)(font "Arial" (font_size 6)))
	(text "o_ShiftCount[0..5]" (rect 90 0 186 12)(font "Arial" ))
	(pt 0 8)
	(drawing
		(line (pt 0 8)(pt 52 8))
		(line (pt 52 4)(pt 78 4))
		(line (pt 52 12)(pt 78 12))
		(line (pt 52 12)(pt 52 4))
		(line (pt 78 4)(pt 82 8))
		(line (pt 82 8)(pt 78 12))
		(line (pt 78 12)(pt 82 8))
	)
)
(pin
	(output)
	(rect 1800 584 1976 600)
	(text "OUTPUT" (rect 1 0 39 10)(font "Arial" (font_size 6)))
	(text "o_TP[0..2]" (rect 90 0 144 12)(font "Arial" ))
	(pt 0 8)
	(drawing
		(line (pt 0 8)(pt 52 8))
		(line (pt 52 4)(pt 78 4))
		(line (pt 52 12)(pt 78 12))
		(line (pt 52 12)(pt 52 4))
		(line (pt 78 4)(pt 82 8))
		(line (pt 82 8)(pt 78 12))
		(line (pt 78 12)(pt 82 8))
	)
)
(symbol
	(rect 304 624 520 736)
	(text "LpmDivide" (rect 63 10 145 27)(font "Arial" (font_size 10)))
	(text "_dvf1" (rect 16 89 45 101)(font "Arial" ))
	(port
		(pt 0 32)
		(input)
		(text "numer[35..0]" (rect 0 8 86 22)(font "Arial" (font_size 8)))
		(text "numer[35..0]" (rect 20 26 106 40)(font "Arial" (font_size 8)))
		(line (pt 0 32)(pt 16 32)(line_width 3))
	)
	(port
		(pt 0 48)
		(input)
		(text "denom[17..0]" (rect 0 8 88 22)(font "Arial" (font_size 8)))
		(text "denom[17..0]" (rect 20 42 108 56)(font "Arial" (font_size 8)))
		(line (pt 0 48)(pt 16 48)(line_width 3))
	)
	(port
		(pt 216 32)
		(output)
		(text "quotient[35..0]" (rect 40 8 137 22)(font "Arial" (font_size 8)))
		(text "quotient[35..0]" (rect 114 26 211 40)(font "Arial" (font_size 8)))
		(line (pt 216 32)(pt 200 32)(line_width 3))
	)
	(port
		(pt 216 48)
		(output)
		(text "remain[17..0]" (rect 40 8 129 22)(font "Arial" (font_size 8)))
		(text "remain[17..0]" (rect 122 42 211 56)(font "Arial" (font_size 8)))
		(line (pt 216 48)(pt 200 48)(line_width 3))
	)
	(drawing
		(text "Numer is UNSIGNED" (rect 77 59 185 71)(font "Arial" ))
		(text "Denom is UNSIGNED" (rect 75 75 185 87)(font "Arial" ))
		(line (pt 200 8)(pt 200 106))
		(line (pt 16 8)(pt 16 106))
		(line (pt 8 8)(pt 8 8))
		(line (pt 8 8)(pt 8 8))
		(line (pt 8 8)(pt 8 8))
		(line (pt 8 8)(pt 8 8))
		(line (pt 16 106)(pt 200 106))
		(line (pt 16 8)(pt 200 8))
	)
)
(symbol
	(rect 312 792 488 904)
	(text "CharacterAddMatrix" (rect 5 0 113 12)(font "Arial" ))
	(text "_cam0" (rect 8 96 43 108)(font "Arial" ))
	(port
		(pt 0 32)
		(input)
		(text "reset" (rect 0 0 27 12)(font "Arial" ))
		(text "reset" (rect 21 27 48 39)(font "Arial" ))
		(line (pt 0 32)(pt 16 32))
	)
	(port
		(pt 0 48)
		(input)
		(text "row[0..2]" (rect 0 0 48 12)(font "Arial" ))
		(text "row[0..2]" (rect 21 43 69 55)(font "Arial" ))
		(line (pt 0 48)(pt 16 48)(line_width 3))
	)
	(port
		(pt 0 64)
		(input)
		(text "col[0..2]" (rect 0 0 44 12)(font "Arial" ))
		(text "col[0..2]" (rect 21 59 65 71)(font "Arial" ))
		(line (pt 0 64)(pt 16 64)(line_width 3))
	)
	(port
		(pt 176 32)
		(output)
		(text "result[0..3]" (rect 0 0 59 12)(font "Arial" ))
		(text "result[0..3]" (rect 106 27 165 39)(font "Arial" ))
		(line (pt 176 32)(pt 160 32)(line_width 3))
	)
	(drawing
		(rectangle (rect 16 16 160 96))
	)
)
(symbol
	(rect 1112 376 1336 456)
	(text "AndMask" (rect 5 0 54 12)(font "Arial" ))
	(text "_aparity1" (rect 8 64 57 76)(font "Arial" ))
	(port
		(pt 0 32)
		(input)
		(text "mask[0..17]" (rect 0 0 64 12)(font "Arial" ))
		(text "mask[0..17]" (rect 21 27 85 39)(font "Arial" ))
		(line (pt 0 32)(pt 16 32)(line_width 3))
	)
	(port
		(pt 0 48)
		(input)
		(text "data[0..17]" (rect 0 0 60 12)(font "Arial" ))
		(text "data[0..17]" (rect 21 43 81 55)(font "Arial" ))
		(line (pt 0 48)(pt 16 48)(line_width 3))
	)
	(port
		(pt 224 32)
		(output)
		(text "maskedData[0..17]" (rect 0 0 102 12)(font "Arial" ))
		(text "maskedData[0..17]" (rect 117 27 219 39)(font "Arial" ))
		(line (pt 224 32)(pt 208 32)(line_width 3))
	)
	(drawing
		(rectangle (rect 16 16 208 64))
	)
)
(symbol
	(rect 1112 504 1336 584)
	(text "AndMask" (rect 5 0 54 12)(font "Arial" ))
	(text "_qparity1" (rect 8 64 58 76)(font "Arial" ))
	(port
		(pt 0 32)
		(input)
		(text "mask[0..17]" (rect 0 0 64 12)(font "Arial" ))
		(text "mask[0..17]" (rect 21 27 85 39)(font "Arial" ))
		(line (pt 0 32)(pt 16 32)(line_width 3))
	)
	(port
		(pt 0 48)
		(input)
		(text "data[0..17]" (rect 0 0 60 12)(font "Arial" ))
		(text "data[0..17]" (rect 21 43 81 55)(font "Arial" ))
		(line (pt 0 48)(pt 16 48)(line_width 3))
	)
	(port
		(pt 224 32)
		(output)
		(text "maskedData[0..17]" (rect 0 0 102 12)(font "Arial" ))
		(text "maskedData[0..17]" (rect 117 27 219 39)(font "Arial" ))
		(line (pt 224 32)(pt 208 32)(line_width 3))
	)
	(drawing
		(rectangle (rect 16 16 208 64))
	)
)
(symbol
	(rect 1376 376 1520 472)
	(text "ParityGenerator" (rect 5 0 98 15)(font "Intel Clear" (font_size 8)))
	(text "_pga1" (rect 8 80 37 92)(font "Intel Clear" ))
	(port
		(pt 0 32)
		(input)
		(text "din[0..17]" (rect 0 0 56 15)(font "Intel Clear" (font_size 8)))
		(text "din[0..17]" (rect 21 27 77 42)(font "Intel Clear" (font_size 8)))
		(line (pt 0 32)(pt 16 32)(line_width 3))
	)
	(port
		(pt 144 32)
		(output)
		(text "parity" (rect 0 0 34 15)(font "Intel Clear" (font_size 8)))
		(text "parity" (rect 89 27 123 42)(font "Intel Clear" (font_size 8)))
		(line (pt 144 32)(pt 128 32))
	)
	(drawing
		(rectangle (rect 16 16 128 80))
	)
)
(symbol
	(rect 1376 504 1520 600)
	(text "ParityGenerator" (rect 5 0 98 15)(font "Intel Clear" (font_size 8)))
	(text "_pgq1" (rect 8 80 38 92)(font "Intel Clear" ))
	(port
		(pt 0 32)
		(input)
		(text "din[0..17]" (rect 0 0 56 15)(font "Intel Clear" (font_size 8)))
		(text "din[0..17]" (rect 21 27 77 42)(font "Intel Clear" (font_size 8)))
		(line (pt 0 32)(pt 16 32)(line_width 3))
	)
	(port
		(pt 144 32)
		(output)
		(text "parity" (rect 0 0 34 15)(font "Intel Clear" (font_size 8)))
		(text "parity" (rect 89 27 123 42)(font "Intel Clear" (font_size 8)))
		(line (pt 144 32)(pt 128 32))
	)
	(drawing
		(rectangle (rect 16 16 128 80))
	)
)
(symbol
	(rect 824 640 1048 784)
	(text "Addder36oe" (rect 5 0 69 12)(font "Arial" ))
	(text "_adder36oe1" (rect 8 128 77 140)(font "Arial" ))
	(port
		(pt 0 32)
		(input)
		(text "i_Addend1[0..35]" (rect 0 0 92 12)(font "Arial" ))
		(text "i_Addend1[0..35]" (rect 21 27 113 39)(font "Arial" ))
		(line (pt 0 32)(pt 16 32)(line_width 3))
	)
	(port
		(pt 0 48)
		(input)
		(text "i_Addend2[0..35]" (rect 0 0 92 12)(font "Arial" ))
		(text "i_Addend2[0..35]" (rect 21 43 113 55)(font "Arial" ))
		(line (pt 0 48)(pt 16 48)(line_width 3))
	)
	(port
		(pt 0 64)
		(input)
		(text "i_Carry" (rect 0 0 38 12)(font "Arial" ))
		(text "i_Carry" (rect 21 59 59 71)(font "Arial" ))
		(line (pt 0 64)(pt 16 64))
	)
	(port
		(pt 0 80)
		(input)
		(text "i_Add" (rect 0 0 29 12)(font "Arial" ))
		(text "i_Add" (rect 21 75 50 87)(font "Arial" ))
		(line (pt 0 80)(pt 16 80))
	)
	(port
		(pt 0 96)
		(input)
		(text "i_Enable" (rect 0 0 44 12)(font "Arial" ))
		(text "i_Enable" (rect 21 91 65 103)(font "Arial" ))
		(line (pt 0 96)(pt 16 96))
	)
	(port
		(pt 224 32)
		(output)
		(text "o_Sum[0..35]" (rect 0 0 71 12)(font "Arial" ))
		(text "o_Sum[0..35]" (rect 143 27 214 39)(font "Arial" ))
		(line (pt 224 32)(pt 208 32)(line_width 3))
	)
	(port
		(pt 224 48)
		(output)
		(text "o_Carry" (rect 0 0 42 12)(font "Arial" ))
		(text "o_Carry" (rect 168 43 210 55)(font "Arial" ))
		(line (pt 224 48)(pt 208 48))
	)
	(port
		(pt 224 64)
		(output)
		(text "o_Overflow" (rect 0 0 60 12)(font "Arial" ))
		(text "o_Overflow" (rect 153 59 213 71)(font "Arial" ))
		(line (pt 224 64)(pt 208 64))
	)
	(drawing
		(rectangle (rect 16 16 208 128))
	)
)
(symbol
	(rect 824 800 1048 944)
	(text "Addder18oe" (rect 5 0 69 12)(font "Arial" ))
	(text "_adder18oe1" (rect 8 128 77 140)(font "Arial" ))
	(port
		(pt 0 32)
		(input)
		(text "i_Addend1[0..17]" (rect 0 0 92 12)(font "Arial" ))
		(text "i_Addend1[0..17]" (rect 21 27 113 39)(font "Arial" ))
		(line (pt 0 32)(pt 16 32)(line_width 3))
	)
	(port
		(pt 0 48)
		(input)
		(text "i_Addend2[0..17]" (rect 0 0 92 12)(font "Arial" ))
		(text "i_Addend2[0..17]" (rect 21 43 113 55)(font "Arial" ))
		(line (pt 0 48)(pt 16 48)(line_width 3))
	)
	(port
		(pt 0 64)
		(input)
		(text "i_Carry" (rect 0 0 38 12)(font "Arial" ))
		(text "i_Carry" (rect 21 59 59 71)(font "Arial" ))
		(line (pt 0 64)(pt 16 64))
	)
	(port
		(pt 0 80)
		(input)
		(text "i_Add" (rect 0 0 29 12)(font "Arial" ))
		(text "i_Add" (rect 21 75 50 87)(font "Arial" ))
		(line (pt 0 80)(pt 16 80))
	)
	(port
		(pt 0 96)
		(input)
		(text "i_Enable" (rect 0 0 44 12)(font "Arial" ))
		(text "i_Enable" (rect 21 91 65 103)(font "Arial" ))
		(line (pt 0 96)(pt 16 96))
	)
	(port
		(pt 224 32)
		(output)
		(text "o_Sum[0..17]" (rect 0 0 71 12)(font "Arial" ))
		(text "o_Sum[0..17]" (rect 143 27 214 39)(font "Arial" ))
		(line (pt 224 32)(pt 208 32)(line_width 3))
	)
	(port
		(pt 224 48)
		(output)
		(text "o_Carry" (rect 0 0 42 12)(font "Arial" ))
		(text "o_Carry" (rect 168 43 210 55)(font "Arial" ))
		(line (pt 224 48)(pt 208 48))
	)
	(port
		(pt 224 64)
		(output)
		(text "o_Overflow" (rect 0 0 60 12)(font "Arial" ))
		(text "o_Overflow" (rect 153 59 213 71)(font "Arial" ))
		(line (pt 224 64)(pt 208 64))
	)
	(drawing
		(rectangle (rect 16 16 208 128))
	)
)
(symbol
	(rect 1344 640 1616 848)
	(text "OutputCombiner" (rect 5 0 93 12)(font "Arial" ))
	(text "_aluoc1" (rect 8 192 49 204)(font "Arial" ))
	(port
		(pt 0 32)
		(input)
		(text "i_Adder18Result[0..17]" (rect 0 0 122 12)(font "Arial" ))
		(text "i_Adder18Result[0..17]" (rect 21 27 143 39)(font "Arial" ))
		(line (pt 0 32)(pt 16 32)(line_width 3))
	)
	(port
		(pt 0 48)
		(input)
		(text "i_Adder18Carry" (rect 0 0 83 12)(font "Arial" ))
		(text "i_Adder18Carry" (rect 21 43 104 55)(font "Arial" ))
		(line (pt 0 48)(pt 16 48))
	)
	(port
		(pt 0 64)
		(input)
		(text "i_Adder18Overflow" (rect 0 0 101 12)(font "Arial" ))
		(text "i_Adder18Overflow" (rect 21 59 122 71)(font "Arial" ))
		(line (pt 0 64)(pt 16 64))
	)
	(port
		(pt 0 80)
		(input)
		(text "i_Adder36Result[0..35]" (rect 0 0 122 12)(font "Arial" ))
		(text "i_Adder36Result[0..35]" (rect 21 75 143 87)(font "Arial" ))
		(line (pt 0 80)(pt 16 80)(line_width 3))
	)
	(port
		(pt 0 96)
		(input)
		(text "i_Adder36Carry" (rect 0 0 83 12)(font "Arial" ))
		(text "i_Adder36Carry" (rect 21 91 104 103)(font "Arial" ))
		(line (pt 0 96)(pt 16 96))
	)
	(port
		(pt 0 112)
		(input)
		(text "i_Adder36Overflow" (rect 0 0 101 12)(font "Arial" ))
		(text "i_Adder36Overflow" (rect 21 107 122 119)(font "Arial" ))
		(line (pt 0 112)(pt 16 112))
	)
	(port
		(pt 0 128)
		(input)
		(text "i_QuotientEnable" (rect 0 0 90 12)(font "Arial" ))
		(text "i_QuotientEnable" (rect 21 123 111 135)(font "Arial" ))
		(line (pt 0 128)(pt 16 128))
	)
	(port
		(pt 0 144)
		(input)
		(text "i_Quotient[0..35]" (rect 0 0 89 12)(font "Arial" ))
		(text "i_Quotient[0..35]" (rect 21 139 110 151)(font "Arial" ))
		(line (pt 0 144)(pt 16 144)(line_width 3))
	)
	(port
		(pt 0 160)
		(input)
		(text "i_AluResultLow[0..17]" (rect 0 0 115 12)(font "Arial" ))
		(text "i_AluResultLow[0..17]" (rect 21 155 136 167)(font "Arial" ))
		(line (pt 0 160)(pt 16 160)(line_width 3))
	)
	(port
		(pt 0 176)
		(input)
		(text "i_AluResultHigh[0..17]" (rect 0 0 119 12)(font "Arial" ))
		(text "i_AluResultHigh[0..17]" (rect 21 171 140 183)(font "Arial" ))
		(line (pt 0 176)(pt 16 176)(line_width 3))
	)
	(port
		(pt 272 32)
		(output)
		(text "o_ResultLow[0..17]" (rect 0 0 101 12)(font "Arial" ))
		(text "o_ResultLow[0..17]" (rect 166 27 267 39)(font "Arial" ))
		(line (pt 272 32)(pt 256 32)(line_width 3))
	)
	(port
		(pt 272 48)
		(output)
		(text "o_ResultHigh[0..17]" (rect 0 0 105 12)(font "Arial" ))
		(text "o_ResultHigh[0..17]" (rect 163 43 268 55)(font "Arial" ))
		(line (pt 272 48)(pt 256 48)(line_width 3))
	)
	(port
		(pt 272 64)
		(output)
		(text "o_Carry" (rect 0 0 42 12)(font "Arial" ))
		(text "o_Carry" (rect 216 59 258 71)(font "Arial" ))
		(line (pt 272 64)(pt 256 64))
	)
	(port
		(pt 272 80)
		(output)
		(text "o_Overflow" (rect 0 0 60 12)(font "Arial" ))
		(text "o_Overflow" (rect 201 75 261 87)(font "Arial" ))
		(line (pt 272 80)(pt 256 80))
	)
	(drawing
		(rectangle (rect 16 16 256 192))
	)
)
(symbol
	(rect 352 272 616 544)
	(text "AluController" (rect 5 0 74 12)(font "Arial" ))
	(text "_aluctrl1" (rect 8 256 54 268)(font "Arial" ))
	(port
		(pt 0 32)
		(input)
		(text "i_Clock" (rect 0 0 38 12)(font "Arial" ))
		(text "i_Clock" (rect 21 27 59 39)(font "Arial" ))
		(line (pt 0 32)(pt 16 32))
	)
	(port
		(pt 0 48)
		(input)
		(text "i_Reset" (rect 0 0 38 12)(font "Arial" ))
		(text "i_Reset" (rect 21 43 59 55)(font "Arial" ))
		(line (pt 0 48)(pt 16 48))
	)
	(port
		(pt 0 64)
		(input)
		(text "i_Start" (rect 0 0 34 12)(font "Arial" ))
		(text "i_Start" (rect 21 59 55 71)(font "Arial" ))
		(line (pt 0 64)(pt 16 64))
	)
	(port
		(pt 0 80)
		(input)
		(text "i_AluOp[0..3]" (rect 0 0 69 12)(font "Arial" ))
		(text "i_AluOp[0..3]" (rect 21 75 90 87)(font "Arial" ))
		(line (pt 0 80)(pt 16 80)(line_width 3))
	)
	(port
		(pt 0 96)
		(input)
		(text "i_RegA[0..17]" (rect 0 0 71 12)(font "Arial" ))
		(text "i_RegA[0..17]" (rect 21 91 92 103)(font "Arial" ))
		(line (pt 0 96)(pt 16 96)(line_width 3))
	)
	(port
		(pt 0 112)
		(input)
		(text "i_RegQ[0..17]" (rect 0 0 73 12)(font "Arial" ))
		(text "i_RegQ[0..17]" (rect 21 107 94 119)(font "Arial" ))
		(line (pt 0 112)(pt 16 112)(line_width 3))
	)
	(port
		(pt 0 128)
		(input)
		(text "i_MemoryData[0..35]" (rect 0 0 112 12)(font "Arial" ))
		(text "i_MemoryData[0..35]" (rect 21 123 133 135)(font "Arial" ))
		(line (pt 0 128)(pt 16 128)(line_width 3))
	)
	(port
		(pt 0 144)
		(input)
		(text "i_ShiftCount[0..5]" (rect 0 0 93 12)(font "Arial" ))
		(text "i_ShiftCount[0..5]" (rect 21 139 114 151)(font "Arial" ))
		(line (pt 0 144)(pt 16 144)(line_width 3))
	)
	(port
		(pt 0 160)
		(input)
		(text "i_Overflow" (rect 0 0 56 12)(font "Arial" ))
		(text "i_Overflow" (rect 21 155 77 167)(font "Arial" ))
		(line (pt 0 160)(pt 16 160))
	)
	(port
		(pt 0 176)
		(input)
		(text "i_Quotient[0..35]" (rect 0 0 89 12)(font "Arial" ))
		(text "i_Quotient[0..35]" (rect 21 171 110 183)(font "Arial" ))
		(line (pt 0 176)(pt 16 176)(line_width 3))
	)
	(port
		(pt 0 192)
		(input)
		(text "i_Remainder[0..17]" (rect 0 0 102 12)(font "Arial" ))
		(text "i_Remainder[0..17]" (rect 21 187 123 199)(font "Arial" ))
		(line (pt 0 192)(pt 16 192)(line_width 3))
	)
	(port
		(pt 264 32)
		(output)
		(text "o_Ready" (rect 0 0 47 12)(font "Arial" ))
		(text "o_Ready" (rect 204 27 251 39)(font "Arial" ))
		(line (pt 264 32)(pt 248 32))
	)
	(port
		(pt 264 48)
		(output)
		(text "o_Operand1[0..35]" (rect 0 0 100 12)(font "Arial" ))
		(text "o_Operand1[0..35]" (rect 159 43 259 55)(font "Arial" ))
		(line (pt 264 48)(pt 248 48)(line_width 3))
	)
	(port
		(pt 264 64)
		(output)
		(text "o_Operand2[0..35]" (rect 0 0 100 12)(font "Arial" ))
		(text "o_Operand2[0..35]" (rect 159 59 259 71)(font "Arial" ))
		(line (pt 264 64)(pt 248 64)(line_width 3))
	)
	(port
		(pt 264 80)
		(output)
		(text "o_Carry" (rect 0 0 42 12)(font "Arial" ))
		(text "o_Carry" (rect 208 75 250 87)(font "Arial" ))
		(line (pt 264 80)(pt 248 80))
	)
	(port
		(pt 264 96)
		(output)
		(text "o_Add" (rect 0 0 33 12)(font "Arial" ))
		(text "o_Add" (rect 216 91 249 103)(font "Arial" ))
		(line (pt 264 96)(pt 248 96))
	)
	(port
		(pt 264 112)
		(output)
		(text "o_Long" (rect 0 0 37 12)(font "Arial" ))
		(text "o_Long" (rect 212 107 249 119)(font "Arial" ))
		(line (pt 264 112)(pt 248 112))
	)
	(port
		(pt 264 128)
		(output)
		(text "o_AdderEnable18" (rect 0 0 93 12)(font "Arial" ))
		(text "o_AdderEnable18" (rect 165 123 258 135)(font "Arial" ))
		(line (pt 264 128)(pt 248 128))
	)
	(port
		(pt 264 144)
		(output)
		(text "o_AdderEnable36" (rect 0 0 93 12)(font "Arial" ))
		(text "o_AdderEnable36" (rect 165 139 258 151)(font "Arial" ))
		(line (pt 264 144)(pt 248 144))
	)
	(port
		(pt 264 160)
		(output)
		(text "o_QuotientEnable" (rect 0 0 94 12)(font "Arial" ))
		(text "o_QuotientEnable" (rect 164 155 258 167)(font "Arial" ))
		(line (pt 264 160)(pt 248 160))
	)
	(port
		(pt 264 176)
		(output)
		(text "o_State[0..2]" (rect 0 0 68 12)(font "Arial" ))
		(text "o_State[0..2]" (rect 186 171 254 183)(font "Arial" ))
		(line (pt 264 176)(pt 248 176)(line_width 3))
	)
	(port
		(pt 264 192)
		(output)
		(text "o_ResultLow[0..17]" (rect 0 0 101 12)(font "Arial" ))
		(text "o_ResultLow[0..17]" (rect 158 187 259 199)(font "Arial" ))
		(line (pt 264 192)(pt 248 192)(line_width 3))
	)
	(port
		(pt 264 208)
		(output)
		(text "o_ResultHigh[0..17]" (rect 0 0 105 12)(font "Arial" ))
		(text "o_ResultHigh[0..17]" (rect 155 203 260 215)(font "Arial" ))
		(line (pt 264 208)(pt 248 208)(line_width 3))
	)
	(port
		(pt 264 224)
		(output)
		(text "o_DivideCheck" (rect 0 0 80 12)(font "Arial" ))
		(text "o_DivideCheck" (rect 176 219 256 231)(font "Arial" ))
		(line (pt 264 224)(pt 248 224))
	)
	(drawing
		(rectangle (rect 16 16 248 256))
	)
)
(symbol
	(rect 1168 256 1392 352)
	(text "NrmShiftCounter" (rect 5 0 105 15)(font "Intel Clear" (font_size 8)))
	(text "_nrmsc1" (rect 8 80 49 92)(font "Intel Clear" ))
	(port
		(pt 0 32)
		(input)
		(text "i_RegA[0..17]" (rect 0 0 77 15)(font "Intel Clear" (font_size 8)))
		(text "i_RegA[0..17]" (rect 21 27 98 42)(font "Intel Clear" (font_size 8)))
		(line (pt 0 32)(pt 16 32)(line_width 3))
	)
	(port
		(pt 0 48)
		(input)
		(text "i_RegQ[0..17]" (rect 0 0 80 15)(font "Intel Clear" (font_size 8)))
		(text "i_RegQ[0..17]" (rect 21 43 101 58)(font "Intel Clear" (font_size 8)))
		(line (pt 0 48)(pt 16 48)(line_width 3))
	)
	(port
		(pt 0 64)
		(input)
		(text "i_Long" (rect 0 0 38 15)(font "Intel Clear" (font_size 8)))
		(text "i_Long" (rect 21 59 59 74)(font "Intel Clear" (font_size 8)))
		(line (pt 0 64)(pt 16 64))
	)
	(port
		(pt 224 32)
		(output)
		(text "o_Priority[0..5]" (rect 0 0 87 15)(font "Intel Clear" (font_size 8)))
		(text "o_Priority[0..5]" (rect 116 27 203 42)(font "Intel Clear" (font_size 8)))
		(line (pt 224 32)(pt 208 32)(line_width 3))
	)
	(drawing
		(rectangle (rect 16 16 208 80))
	)
)
(connector
	(pt 1336 408)
	(pt 1376 408)
	(bus)
)
(connector
	(pt 1376 536)
	(pt 1336 536)
	(bus)
)
(connector
	(pt 1016 248)
	(pt 1016 288)
	(bus)
)
(connector
	(pt 1016 288)
	(pt 1016 304)
	(bus)
)
(connector
	(pt 1016 304)
	(pt 1016 320)
	(bus)
)
(connector
	(pt 1016 320)
	(pt 1016 408)
	(bus)
)
(connector
	(pt 1016 408)
	(pt 1016 424)
	(bus)
)
(connector
	(pt 1016 424)
	(pt 1016 536)
	(bus)
)
(connector
	(pt 1016 536)
	(pt 1016 552)
	(bus)
)
(connector
	(pt 1016 552)
	(pt 1016 608)
	(bus)
)
(connector
	(pt 1600 248)
	(pt 1600 288)
	(bus)
)
(connector
	(pt 1600 288)
	(pt 1600 408)
	(bus)
)
(connector
	(pt 1600 408)
	(pt 1600 536)
	(bus)
)
(connector
	(pt 1600 536)
	(pt 1600 608)
	(bus)
)
(connector
	(pt 1016 608)
	(pt 1144 608)
	(bus)
)
(connector
	(pt 1144 608)
	(pt 1144 672)
	(bus)
)
(connector
	(pt 1144 672)
	(pt 1144 688)
	(bus)
)
(connector
	(pt 1144 688)
	(pt 1144 704)
	(bus)
)
(connector
	(pt 1144 704)
	(pt 1144 832)
	(bus)
)
(connector
	(pt 1144 832)
	(pt 1144 848)
	(bus)
)
(connector
	(pt 1144 848)
	(pt 1144 864)
	(bus)
)
(connector
	(pt 1144 864)
	(pt 1144 920)
	(bus)
)
(connector
	(pt 728 608)
	(pt 1016 608)
	(bus)
)
(connector
	(pt 728 608)
	(pt 728 672)
	(bus)
)
(connector
	(pt 728 672)
	(pt 728 688)
	(bus)
)
(connector
	(pt 728 688)
	(pt 728 704)
	(bus)
)
(connector
	(pt 728 704)
	(pt 728 720)
	(bus)
)
(connector
	(pt 728 832)
	(pt 728 848)
	(bus)
)
(connector
	(pt 728 848)
	(pt 728 864)
	(bus)
)
(connector
	(pt 728 864)
	(pt 728 880)
	(bus)
)
(connector
	(pt 616 608)
	(pt 616 656)
	(bus)
)
(connector
	(pt 616 656)
	(pt 616 672)
	(bus)
)
(connector
	(pt 216 608)
	(pt 216 656)
	(bus)
)
(connector
	(pt 216 656)
	(pt 216 672)
	(bus)
)
(connector
	(pt 1720 608)
	(pt 1888 608)
	(bus)
)
(connector
	(pt 1720 360)
	(pt 1720 400)
	(bus)
)
(connector
	(text "aluBus[42]" (rect 1730 384 1783 396)(font "Intel Clear" ))
	(pt 1800 400)
	(pt 1720 400)
)
(connector
	(pt 720 608)
	(pt 728 608)
	(bus)
)
(connector
	(text "aluBus[115]" (rect 738 688 797 700)(font "Intel Clear" ))
	(pt 824 704)
	(pt 728 704)
)
(connector
	(text "aluBus[115]" (rect 738 848 797 860)(font "Intel Clear" ))
	(pt 728 864)
	(pt 824 864)
)
(connector
	(text "aluBus[116]" (rect 738 704 797 716)(font "Intel Clear" ))
	(pt 824 720)
	(pt 728 720)
)
(connector
	(text "aluBus[116]" (rect 738 864 797 876)(font "Intel Clear" ))
	(pt 824 880)
	(pt 728 880)
)
(connector
	(text "aluBus[117]" (rect 1026 304 1085 316)(font "Intel Clear" ))
	(pt 1168 320)
	(pt 1016 320)
)
(connector
	(pt 616 608)
	(pt 720 608)
	(bus)
)
(connector
	(pt 200 488)
	(pt 200 512)
	(bus)
)
(connector
	(pt 200 512)
	(pt 200 528)
	(bus)
)
(connector
	(pt 200 528)
	(pt 200 544)
	(bus)
)
(connector
	(pt 200 544)
	(pt 200 608)
	(bus)
)
(connector
	(pt 200 608)
	(pt 216 608)
	(bus)
)
(connector
	(pt 200 608)
	(pt 200 656)
	(bus)
)
(connector
	(pt 200 656)
	(pt 200 672)
	(bus)
)
(connector
	(pt 200 672)
	(pt 200 688)
	(bus)
)
(connector
	(pt 200 688)
	(pt 200 704)
	(bus)
)
(connector
	(text "aluBus[0]" (rect 114 496 160 508)(font "Intel Clear" ))
	(pt 104 512)
	(pt 200 512)
)
(connector
	(text "aluBus[1]" (rect 114 512 160 524)(font "Intel Clear" ))
	(pt 104 528)
	(pt 200 528)
)
(connector
	(text "aluBus[2]" (rect 114 528 160 540)(font "Intel Clear" ))
	(pt 104 544)
	(pt 200 544)
)
(connector
	(pt 216 608)
	(pt 264 608)
	(bus)
)
(connector
	(pt 264 608)
	(pt 616 608)
	(bus)
)
(connector
	(pt 728 880)
	(pt 728 896)
	(bus)
)
(connector
	(pt 728 896)
	(pt 728 920)
	(bus)
)
(connector
	(text "aluBus[136]" (rect 738 880 797 892)(font "Intel Clear" ))
	(pt 824 896)
	(pt 728 896)
)
(connector
	(pt 728 720)
	(pt 728 736)
	(bus)
)
(connector
	(pt 728 736)
	(pt 728 832)
	(bus)
)
(connector
	(text "aluBus[137]" (rect 738 720 797 732)(font "Intel Clear" ))
	(pt 824 736)
	(pt 728 736)
)
(connector
	(pt 1720 400)
	(pt 1720 416)
	(bus)
)
(connector
	(pt 1720 416)
	(pt 1720 432)
	(bus)
)
(connector
	(pt 1720 432)
	(pt 1720 448)
	(bus)
)
(connector
	(pt 1720 448)
	(pt 1720 464)
	(bus)
)
(connector
	(pt 1720 464)
	(pt 1720 480)
	(bus)
)
(connector
	(text "aluBus[174]" (rect 1730 432 1789 444)(font "Intel Clear" ))
	(pt 1800 448)
	(pt 1720 448)
)
(connector
	(text "aluBus[175]" (rect 1730 448 1789 460)(font "Intel Clear" ))
	(pt 1800 464)
	(pt 1720 464)
)
(connector
	(text "aluBus[176]" (rect 1730 464 1789 476)(font "Intel Clear" ))
	(pt 1800 480)
	(pt 1720 480)
)
(connector
	(pt 1144 608)
	(pt 1240 608)
	(bus)
)
(connector
	(pt 1240 608)
	(pt 1600 608)
	(bus)
)
(connector
	(pt 1600 608)
	(pt 1704 608)
	(bus)
)
(connector
	(pt 1704 608)
	(pt 1720 608)
	(bus)
)
(connector
	(pt 1704 608)
	(pt 1704 672)
	(bus)
)
(connector
	(pt 1704 672)
	(pt 1704 688)
	(bus)
)
(connector
	(pt 1704 688)
	(pt 1704 704)
	(bus)
)
(connector
	(pt 1704 704)
	(pt 1704 720)
	(bus)
)
(connector
	(pt 1704 720)
	(pt 1704 856)
	(bus)
)
(connector
	(text "aluBus[174]" (rect 1626 688 1685 700)(font "Intel Clear" ))
	(pt 1616 704)
	(pt 1704 704)
)
(connector
	(text "aluBus[175]" (rect 1626 704 1685 716)(font "Intel Clear" ))
	(pt 1616 720)
	(pt 1704 720)
)
(connector
	(pt 1240 608)
	(pt 1240 672)
	(bus)
)
(connector
	(pt 1240 704)
	(pt 1240 720)
	(bus)
)
(connector
	(pt 1240 720)
	(pt 1240 736)
	(bus)
)
(connector
	(pt 1240 736)
	(pt 1240 752)
	(bus)
)
(connector
	(pt 1240 672)
	(pt 1240 688)
	(bus)
)
(connector
	(pt 1240 688)
	(pt 1240 704)
	(bus)
)
(connector
	(text "aluBus[193]" (rect 1250 672 1309 684)(font "Intel Clear" ))
	(pt 1344 688)
	(pt 1240 688)
)
(connector
	(text "aluBus[193]" (rect 1058 832 1117 844)(font "Intel Clear" ))
	(pt 1048 848)
	(pt 1144 848)
)
(connector
	(text "aluBus[194]" (rect 1250 688 1309 700)(font "Intel Clear" ))
	(pt 1240 704)
	(pt 1344 704)
)
(connector
	(text "aluBus[194]" (rect 1058 848 1117 860)(font "Intel Clear" ))
	(pt 1048 864)
	(pt 1144 864)
)
(connector
	(text "aluBus[231]" (rect 1058 672 1117 684)(font "Intel Clear" ))
	(pt 1048 688)
	(pt 1144 688)
)
(connector
	(text "aluBus[232]" (rect 1058 688 1117 700)(font "Intel Clear" ))
	(pt 1048 704)
	(pt 1144 704)
)
(connector
	(text "aluBus[231]" (rect 1250 720 1309 732)(font "Intel Clear" ))
	(pt 1344 736)
	(pt 1240 736)
)
(connector
	(text "aluBus[232]" (rect 1250 736 1309 748)(font "Intel Clear" ))
	(pt 1240 752)
	(pt 1344 752)
)
(connector
	(pt 616 672)
	(pt 616 824)
	(bus)
)
(connector
	(pt 616 824)
	(pt 616 944)
	(bus)
)
(connector
	(pt 216 672)
	(pt 216 824)
	(bus)
)
(connector
	(pt 216 824)
	(pt 216 840)
	(bus)
)
(connector
	(pt 216 840)
	(pt 216 856)
	(bus)
)
(connector
	(pt 216 856)
	(pt 216 944)
	(bus)
)
(connector
	(text "aluBus[1]" (rect 232 808 278 820)(font "Intel Clear" ))
	(pt 216 824)
	(pt 312 824)
)
(connector
	(pt 1720 480)
	(pt 1720 496)
	(bus)
)
(connector
	(pt 1240 752)
	(pt 1240 768)
	(bus)
)
(connector
	(pt 1240 768)
	(pt 1240 784)
	(bus)
)
(connector
	(text "aluBus[287]" (rect 1250 752 1309 764)(font "Intel Clear" ))
	(pt 1344 768)
	(pt 1240 768)
)
(connector
	(pt 200 704)
	(pt 200 720)
	(bus)
)
(connector
	(pt 200 720)
	(pt 200 736)
	(bus)
)
(connector
	(pt 1720 496)
	(pt 1720 512)
	(bus)
)
(connector
	(pt 200 736)
	(pt 200 752)
	(bus)
)
(connector
	(text "aluBus[176]" (rect 1528 392 1587 404)(font "Intel Clear" ))
	(pt 1600 408)
	(pt 1520 408)
)
(connector
	(pt 1720 512)
	(pt 1720 528)
	(bus)
)
(connector
	(text "aluBus[323]" (rect 1730 512 1789 524)(font "Intel Clear" ))
	(pt 1800 528)
	(pt 1720 528)
)
(connector
	(text "aluBus[323]" (rect 1528 520 1587 532)(font "Intel Clear" ))
	(pt 1600 536)
	(pt 1520 536)
)
(connector
	(pt 1720 528)
	(pt 1720 544)
	(bus)
)
(connector
	(pt 1720 544)
	(pt 1720 560)
	(bus)
)
(connector
	(pt 200 752)
	(pt 200 768)
	(bus)
)
(connector
	(pt 200 768)
	(pt 200 784)
	(bus)
)
(connector
	(text "aluBus[381..0]" (rect 2 592 71 604)(font "Intel Clear" ))
	(pt -8 608)
	(pt 200 608)
	(bus)
)
(connector
	(text "aluBus[381]" (rect 114 752 173 764)(font "Intel Clear" ))
	(pt 104 768)
	(pt 200 768)
)
(connector
	(pt 1240 784)
	(pt 1240 800)
	(bus)
)
(connector
	(pt 1240 800)
	(pt 1240 816)
	(bus)
)
(connector
	(pt 1240 816)
	(pt 1240 856)
	(bus)
)
(connector
	(text "aluBus[0]" (rect 274 288 320 300)(font "Intel Clear" ))
	(pt 264 304)
	(pt 352 304)
)
(connector
	(text "aluBus[42]" (rect 626 288 679 300)(font "Intel Clear" ))
	(pt 720 304)
	(pt 616 304)
)
(connector
	(text "aluBus[1]" (rect 274 304 320 316)(font "Intel Clear" ))
	(pt 264 320)
	(pt 352 320)
)
(connector
	(text "aluBus[2]" (rect 274 320 320 332)(font "Intel Clear" ))
	(pt 264 336)
	(pt 352 336)
)
(connector
	(text "aluBus[115]" (rect 626 336 685 348)(font "Intel Clear" ))
	(pt 720 352)
	(pt 616 352)
)
(connector
	(text "aluBus[116]" (rect 626 352 685 364)(font "Intel Clear" ))
	(pt 720 368)
	(pt 616 368)
)
(connector
	(text "aluBus[117]" (rect 626 368 685 380)(font "Intel Clear" ))
	(pt 720 384)
	(pt 616 384)
)
(connector
	(text "aluBus[136]" (rect 626 384 685 396)(font "Intel Clear" ))
	(pt 720 400)
	(pt 616 400)
)
(connector
	(text "aluBus[137]" (rect 626 400 685 412)(font "Intel Clear" ))
	(pt 720 416)
	(pt 616 416)
)
(connector
	(text "aluBus[287]" (rect 626 416 685 428)(font "Intel Clear" ))
	(pt 720 432)
	(pt 616 432)
)
(connector
	(text "aluBus[381]" (rect 274 416 333 428)(font "Intel Clear" ))
	(pt 264 432)
	(pt 352 432)
)
(connector
	(pt 264 280)
	(pt 264 304)
	(bus)
)
(connector
	(pt 720 280)
	(pt 720 304)
	(bus)
)
(connector
	(pt 264 304)
	(pt 264 320)
	(bus)
)
(connector
	(pt 720 304)
	(pt 720 320)
	(bus)
)
(connector
	(pt 264 320)
	(pt 264 336)
	(bus)
)
(connector
	(pt 720 320)
	(pt 720 336)
	(bus)
)
(connector
	(pt 720 336)
	(pt 720 352)
	(bus)
)
(connector
	(pt 264 336)
	(pt 264 352)
	(bus)
)
(connector
	(pt 720 352)
	(pt 720 368)
	(bus)
)
(connector
	(pt 720 368)
	(pt 720 384)
	(bus)
)
(connector
	(pt 720 384)
	(pt 720 400)
	(bus)
)
(connector
	(pt 720 400)
	(pt 720 416)
	(bus)
)
(connector
	(pt 264 400)
	(pt 264 416)
	(bus)
)
(connector
	(pt 720 416)
	(pt 720 432)
	(bus)
)
(connector
	(pt 264 416)
	(pt 264 432)
	(bus)
)
(connector
	(pt 720 432)
	(pt 720 448)
	(bus)
)
(connector
	(pt 720 448)
	(pt 720 464)
	(bus)
)
(connector
	(pt 720 464)
	(pt 720 480)
	(bus)
)
(connector
	(pt 264 432)
	(pt 264 448)
	(bus)
)
(connector
	(pt 264 448)
	(pt 264 464)
	(bus)
)
(connector
	(pt 264 464)
	(pt 264 608)
	(bus)
)
(connector
	(pt 720 480)
	(pt 720 496)
	(bus)
)
(connector
	(pt 720 496)
	(pt 720 608)
	(bus)
)
(connector
	(text "aluBus[3]" (rect 626 480 672 492)(font "Intel Clear" ))
	(pt 616 496)
	(pt 720 496)
)
(connector
	(pt 1720 560)
	(pt 1720 576)
	(bus)
)
(connector
	(text "aluBus[3]" (rect 1730 560 1776 572)(font "Intel Clear" ))
	(pt 1800 576)
	(pt 1720 576)
)
(connector
	(text "aluBus[418..421]" (rect 114 640 196 652)(font "Intel Clear" ))
	(pt 104 656)
	(pt 200 656)
	(bus)
)
(connector
	(text "aluBus[6..23]" (rect 114 656 177 668)(font "Intel Clear" ))
	(pt 104 672)
	(pt 200 672)
	(bus)
)
(connector
	(text "aluBus[24..41]" (rect 114 672 183 684)(font "Intel Clear" ))
	(pt 104 688)
	(pt 200 688)
	(bus)
)
(connector
	(text "aluBus[382..417]" (rect 114 688 196 700)(font "Intel Clear" ))
	(pt 104 704)
	(pt 200 704)
	(bus)
)
(connector
	(text "aluBus[295..297]" (rect 114 704 196 716)(font "Intel Clear" ))
	(pt 104 720)
	(pt 200 720)
	(bus)
)
(connector
	(text "aluBus[298..300]" (rect 114 720 196 732)(font "Intel Clear" ))
	(pt 104 736)
	(pt 200 736)
	(bus)
)
(connector
	(text "aluBus[305..322]" (rect 114 736 196 748)(font "Intel Clear" ))
	(pt 104 752)
	(pt 200 752)
	(bus)
)
(connector
	(text "aluBus[43..78]" (rect 224 640 293 652)(font "Intel Clear" ))
	(pt 216 656)
	(pt 304 656)
	(bus)
)
(connector
	(text "aluBus[251..286]" (rect 530 640 612 652)(font "Intel Clear" ))
	(pt 520 656)
	(pt 616 656)
	(bus)
)
(connector
	(text "aluBus[233..250]" (rect 530 656 612 668)(font "Intel Clear" ))
	(pt 520 672)
	(pt 616 672)
	(bus)
)
(connector
	(text "aluBus[301..304]" (rect 538 808 620 820)(font "Intel Clear" ))
	(pt 616 824)
	(pt 488 824)
	(bus)
)
(connector
	(text "aluBus[295..297]" (rect 234 824 316 836)(font "Intel Clear" ))
	(pt 216 840)
	(pt 312 840)
	(bus)
)
(connector
	(text "aluBus[298..300]" (rect 234 840 316 852)(font "Intel Clear" ))
	(pt 216 856)
	(pt 312 856)
	(bus)
)
(connector
	(text "aluBus[418..421]" (rect 274 336 356 348)(font "Intel Clear" ))
	(pt 264 352)
	(pt 352 352)
	(bus)
)
(connector
	(text "aluBus[382..417]" (rect 274 384 356 396)(font "Intel Clear" ))
	(pt 264 400)
	(pt 352 400)
	(bus)
)
(connector
	(text "aluBus[288..293]" (rect 274 400 356 412)(font "Intel Clear" ))
	(pt 264 416)
	(pt 352 416)
	(bus)
)
(connector
	(text "aluBus[251..286]" (rect 274 432 356 444)(font "Intel Clear" ))
	(pt 352 448)
	(pt 264 448)
	(bus)
)
(connector
	(text "aluBus[233..250]" (rect 274 448 356 460)(font "Intel Clear" ))
	(pt 352 464)
	(pt 264 464)
	(bus)
)
(connector
	(text "aluBus[43..78]" (rect 626 304 695 316)(font "Intel Clear" ))
	(pt 720 320)
	(pt 616 320)
	(bus)
)
(connector
	(text "aluBus[79..114]" (rect 626 320 701 332)(font "Intel Clear" ))
	(pt 720 336)
	(pt 616 336)
	(bus)
)
(connector
	(text "aluBus[342..344]" (rect 626 432 708 444)(font "Intel Clear" ))
	(pt 720 448)
	(pt 616 448)
	(bus)
)
(connector
	(text "aluBus[345..362]" (rect 626 448 708 460)(font "Intel Clear" ))
	(pt 720 464)
	(pt 616 464)
	(bus)
)
(connector
	(text "aluBus[363..380]" (rect 626 464 708 476)(font "Intel Clear" ))
	(pt 720 480)
	(pt 616 480)
	(bus)
)
(connector
	(text "aluBus[6..23]" (rect 1026 272 1089 284)(font "Intel Clear" ))
	(pt 1168 288)
	(pt 1016 288)
	(bus)
)
(connector
	(text "aluBus[24..41]" (rect 1026 288 1095 300)(font "Intel Clear" ))
	(pt 1168 304)
	(pt 1016 304)
	(bus)
)
(connector
	(text "aluBus[305..322]" (rect 1026 392 1108 404)(font "Intel Clear" ))
	(pt 1016 408)
	(pt 1112 408)
	(bus)
)
(connector
	(text "aluBus[6..23]" (rect 1024 408 1087 420)(font "Intel Clear" ))
	(pt 1016 424)
	(pt 1112 424)
	(bus)
)
(connector
	(text "aluBus[305..322]" (rect 1026 520 1108 532)(font "Intel Clear" ))
	(pt 1016 536)
	(pt 1112 536)
	(bus)
)
(connector
	(text "aluBus[24..41]" (rect 1026 536 1095 548)(font "Intel Clear" ))
	(pt 1016 552)
	(pt 1112 552)
	(bus)
)
(connector
	(text "aluBus[288..293]" (rect 1514 272 1596 284)(font "Intel Clear" ))
	(pt 1392 288)
	(pt 1600 288)
	(bus)
)
(connector
	(text "aluBus[43..78]" (rect 738 656 807 668)(font "Intel Clear" ))
	(pt 824 672)
	(pt 728 672)
	(bus)
)
(connector
	(text "aluBus[79..114]" (rect 738 672 813 684)(font "Intel Clear" ))
	(pt 824 688)
	(pt 728 688)
	(bus)
)
(connector
	(text "aluBus[195..230]" (rect 1058 656 1140 668)(font "Intel Clear" ))
	(pt 1048 672)
	(pt 1144 672)
	(bus)
)
(connector
	(text "aluBus[324..341]" (rect 1056 816 1138 828)(font "Intel Clear" ))
	(pt 1048 832)
	(pt 1144 832)
	(bus)
)
(connector
	(text "aluBus[324..341]" (rect 1250 656 1332 668)(font "Intel Clear" ))
	(pt 1344 672)
	(pt 1240 672)
	(bus)
)
(connector
	(text "aluBus[195..230]" (rect 1250 704 1332 716)(font "Intel Clear" ))
	(pt 1344 720)
	(pt 1240 720)
	(bus)
)
(connector
	(text "aluBus[251..286]" (rect 1250 768 1332 780)(font "Intel Clear" ))
	(pt 1344 784)
	(pt 1240 784)
	(bus)
)
(connector
	(text "aluBus[345..362]" (rect 1250 784 1332 796)(font "Intel Clear" ))
	(pt 1344 800)
	(pt 1240 800)
	(bus)
)
(connector
	(text "aluBus[363..380]" (rect 1250 800 1332 812)(font "Intel Clear" ))
	(pt 1240 816)
	(pt 1344 816)
	(bus)
)
(connector
	(text "aluBus[138..155]" (rect 1626 656 1708 668)(font "Intel Clear" ))
	(pt 1616 672)
	(pt 1704 672)
	(bus)
)
(connector
	(text "aluBus[156..173]" (rect 1626 672 1708 684)(font "Intel Clear" ))
	(pt 1616 688)
	(pt 1704 688)
	(bus)
)
(connector
	(text "aluBus[138..155]" (rect 1730 400 1812 412)(font "Intel Clear" ))
	(pt 1800 416)
	(pt 1720 416)
	(bus)
)
(connector
	(text "aluBus[156..173]" (rect 1730 416 1812 428)(font "Intel Clear" ))
	(pt 1800 432)
	(pt 1720 432)
	(bus)
)
(connector
	(text "aluBus[233..250]" (rect 1730 480 1812 492)(font "Intel Clear" ))
	(pt 1800 496)
	(pt 1720 496)
	(bus)
)
(connector
	(text "aluBus[301..304]" (rect 1730 496 1812 508)(font "Intel Clear" ))
	(pt 1800 512)
	(pt 1720 512)
	(bus)
)
(connector
	(text "aluBus[342..344]" (rect 1730 528 1812 540)(font "Intel Clear" ))
	(pt 1800 544)
	(pt 1720 544)
	(bus)
)
(connector
	(text "aluBus[288..293]" (rect 1730 544 1812 556)(font "Intel Clear" ))
	(pt 1800 560)
	(pt 1720 560)
	(bus)
)
(connector
	(pt 264 352)
	(pt 264 368)
	(bus)
)
(connector
	(text "aluBus[6..23]" (rect 274 352 337 364)(font "Intel Clear" ))
	(pt 352 368)
	(pt 264 368)
	(bus)
)
(connector
	(pt 264 368)
	(pt 264 384)
	(bus)
)
(connector
	(pt 264 384)
	(pt 264 400)
	(bus)
)
(connector
	(text "aluBus[24..41]" (rect 274 368 343 380)(font "Intel Clear" ))
	(pt 352 384)
	(pt 264 384)
	(bus)
)
(connector
	(text "aluBus[61..78]" (rect 736 816 805 828)(font "Intel Clear" ))
	(pt 728 832)
	(pt 824 832)
	(bus)
)
(connector
	(text "aluBus[97..114]" (rect 738 832 813 844)(font "Intel Clear" ))
	(pt 728 848)
	(pt 824 848)
	(bus)
)
(connector
	(pt 1720 576)
	(pt 1720 592)
	(bus)
)
(connector
	(pt 1720 592)
	(pt 1720 608)
	(bus)
)
(connector
	(text "aluBus[97..114]" (rect 226 656 301 668)(font "Intel Clear" ))
	(pt 216 672)
	(pt 304 672)
	(bus)
)
(connector
	(text "aluBus[291..293]" (rect 1730 576 1812 588)(font "Intel Clear" ))
	(pt 1800 592)
	(pt 1720 592)
	(bus)
)
(junction (pt 1016 288))
(junction (pt 1016 304))
(junction (pt 1016 320))
(junction (pt 1016 408))
(junction (pt 1016 424))
(junction (pt 1016 536))
(junction (pt 1016 552))
(junction (pt 1016 608))
(junction (pt 1600 288))
(junction (pt 1600 408))
(junction (pt 1600 536))
(junction (pt 1600 608))
(junction (pt 1144 672))
(junction (pt 1144 608))
(junction (pt 1144 688))
(junction (pt 1144 704))
(junction (pt 1144 832))
(junction (pt 1144 848))
(junction (pt 1144 864))
(junction (pt 728 672))
(junction (pt 728 608))
(junction (pt 728 688))
(junction (pt 728 704))
(junction (pt 728 720))
(junction (pt 728 832))
(junction (pt 728 848))
(junction (pt 728 864))
(junction (pt 728 880))
(junction (pt 616 656))
(junction (pt 616 608))
(junction (pt 616 672))
(junction (pt 616 824))
(junction (pt 216 656))
(junction (pt 216 608))
(junction (pt 216 672))
(junction (pt 216 824))
(junction (pt 216 840))
(junction (pt 216 856))
(junction (pt 200 608))
(junction (pt 200 656))
(junction (pt 200 672))
(junction (pt 200 688))
(junction (pt 200 512))
(junction (pt 200 528))
(junction (pt 200 544))
(junction (pt 1720 608))
(junction (pt 1720 400))
(junction (pt 720 608))
(junction (pt 200 704))
(junction (pt 264 608))
(junction (pt 728 896))
(junction (pt 728 736))
(junction (pt 1720 416))
(junction (pt 1720 432))
(junction (pt 1720 448))
(junction (pt 1720 464))
(junction (pt 1720 480))
(junction (pt 1240 608))
(junction (pt 1704 608))
(junction (pt 1240 704))
(junction (pt 1240 752))
(junction (pt 1704 672))
(junction (pt 1704 688))
(junction (pt 1704 704))
(junction (pt 1704 720))
(junction (pt 1240 672))
(junction (pt 1240 720))
(junction (pt 1240 736))
(junction (pt 1240 688))
(junction (pt 1720 496))
(junction (pt 1240 768))
(junction (pt 1240 784))
(junction (pt 200 720))
(junction (pt 200 736))
(junction (pt 1720 512))
(junction (pt 200 752))
(junction (pt 1720 528))
(junction (pt 1720 544))
(junction (pt 1720 560))
(junction (pt 200 768))
(junction (pt 1240 800))
(junction (pt 1240 816))
(junction (pt 264 304))
(junction (pt 720 304))
(junction (pt 264 320))
(junction (pt 720 320))
(junction (pt 264 336))
(junction (pt 720 336))
(junction (pt 720 352))
(junction (pt 264 352))
(junction (pt 720 368))
(junction (pt 720 384))
(junction (pt 720 400))
(junction (pt 264 400))
(junction (pt 720 416))
(junction (pt 264 416))
(junction (pt 720 432))
(junction (pt 264 432))
(junction (pt 720 448))
(junction (pt 720 464))
(junction (pt 720 480))
(junction (pt 264 448))
(junction (pt 264 464))
(junction (pt 720 496))
(junction (pt 1720 576))
(junction (pt 264 368))
(junction (pt 264 384))
(junction (pt 1720 592))
