/*
WARNING: Do NOT edit the input and output ports in this file in a text
editor if you plan to continue editing the block that represents it in
the Block Editor! File corruption is VERY likely to occur.
*/
/*
Copyright (C) 2022  Intel Corporation. All rights reserved.
Your use of Intel Corporation's design tools, logic functions 
and other software and tools, and any partner logic 
functions, and any output files from any of the foregoing 
(including device programming or simulation files), and any 
associated documentation or information are expressly subject 
to the terms and conditions of the Intel Program License 
Subscription Agreement, the Intel Quartus Prime License Agreement,
the Intel FPGA IP License Agreement, or other applicable license
agreement, including, without limitation, that your use is for
the sole purpose of programming logic devices manufactured by
Intel and sold by Intel or its authorized distributors.  Please
refer to the applicable agreement for further details, at
https://fpgasoftware.intel.com/eula.
*/
(header "graphic" (version "1.4"))
(pin
	(input)
	(rect 344 528 512 544)
	(text "INPUT" (rect 125 0 153 10)(font "Arial" (font_size 6)))
	(text "KEY[0]" (rect 5 0 38 12)(font "Intel Clear" ))
	(pt 168 8)
	(drawing
		(line (pt 84 12)(pt 109 12))
		(line (pt 84 4)(pt 109 4))
		(line (pt 113 8)(pt 168 8))
		(line (pt 84 12)(pt 84 4))
		(line (pt 109 4)(pt 113 8))
		(line (pt 109 12)(pt 113 8))
	)
	(text "VCC" (rect 128 7 148 17)(font "Arial" (font_size 6)))
	(annotation_block (location)(rect 256 528 312 544))
)
(pin
	(input)
	(rect 0 1000 168 1016)
	(text "INPUT" (rect 125 0 153 10)(font "Arial" (font_size 6)))
	(text "KEY[1]" (rect 5 0 38 12)(font "Intel Clear" ))
	(pt 168 8)
	(drawing
		(line (pt 84 12)(pt 109 12))
		(line (pt 84 4)(pt 109 4))
		(line (pt 113 8)(pt 168 8))
		(line (pt 84 12)(pt 84 4))
		(line (pt 109 4)(pt 113 8))
		(line (pt 109 12)(pt 113 8))
	)
	(text "VCC" (rect 128 7 148 17)(font "Arial" (font_size 6)))
	(annotation_block (location)(rect -56 1000 0 1016))
)
(pin
	(input)
	(rect 368 696 536 712)
	(text "INPUT" (rect 125 0 153 10)(font "Arial" (font_size 6)))
	(text "SW[6..9]" (rect 5 0 51 12)(font "Arial" ))
	(pt 168 8)
	(drawing
		(line (pt 84 12)(pt 109 12))
		(line (pt 84 4)(pt 109 4))
		(line (pt 113 8)(pt 168 8))
		(line (pt 84 12)(pt 84 4))
		(line (pt 109 4)(pt 113 8))
		(line (pt 109 12)(pt 113 8))
	)
	(text "VCC" (rect 128 7 148 17)(font "Arial" (font_size 6)))
	(annotation_block (location)(rect 304 696 368 760))
)
(pin
	(input)
	(rect -136 896 48 912)
	(text "INPUT" (rect 141 0 169 10)(font "Arial" (font_size 6)))
	(text "MAX10_CLK1_50" (rect 5 0 93 12)(font "Arial" ))
	(pt 184 8)
	(drawing
		(line (pt 100 12)(pt 125 12))
		(line (pt 100 4)(pt 125 4))
		(line (pt 129 8)(pt 184 8))
		(line (pt 100 12)(pt 100 4))
		(line (pt 125 4)(pt 129 8))
		(line (pt 125 12)(pt 129 8))
	)
	(text "VCC" (rect 144 7 164 17)(font "Arial" (font_size 6)))
	(annotation_block (location)(rect 240 912 304 928))
)
(pin
	(input)
	(rect 432 648 600 664)
	(text "INPUT" (rect 125 0 153 10)(font "Arial" (font_size 6)))
	(text "SW[0..5]" (rect 5 0 52 12)(font "Arial" ))
	(pt 168 8)
	(drawing
		(line (pt 84 12)(pt 109 12))
		(line (pt 84 4)(pt 109 4))
		(line (pt 113 8)(pt 168 8))
		(line (pt 84 12)(pt 84 4))
		(line (pt 109 4)(pt 113 8))
		(line (pt 109 12)(pt 113 8))
	)
	(text "VCC" (rect 128 7 148 17)(font "Arial" (font_size 6)))
	(annotation_block (location)(rect 352 632 416 648))
)
(pin
	(output)
	(rect 1048 160 1224 176)
	(text "OUTPUT" (rect 1 0 39 10)(font "Arial" (font_size 6)))
	(text "HEX0[0..7]" (rect 90 0 147 12)(font "Arial" ))
	(pt 0 8)
	(drawing
		(line (pt 0 8)(pt 52 8))
		(line (pt 52 4)(pt 78 4))
		(line (pt 52 12)(pt 78 12))
		(line (pt 52 12)(pt 52 4))
		(line (pt 78 4)(pt 82 8))
		(line (pt 82 8)(pt 78 12))
		(line (pt 78 12)(pt 82 8))
	)
	(annotation_block (location)(rect 1136 176 1192 304))
)
(pin
	(output)
	(rect 1056 312 1232 328)
	(text "OUTPUT" (rect 1 0 39 10)(font "Arial" (font_size 6)))
	(text "HEX1[0..7]" (rect 90 0 141 12)(font "Intel Clear" ))
	(pt 0 8)
	(drawing
		(line (pt 0 8)(pt 52 8))
		(line (pt 52 4)(pt 78 4))
		(line (pt 52 12)(pt 78 12))
		(line (pt 52 12)(pt 52 4))
		(line (pt 78 4)(pt 82 8))
		(line (pt 82 8)(pt 78 12))
		(line (pt 78 12)(pt 82 8))
	)
	(annotation_block (location)(rect 1136 328 1192 456))
)
(pin
	(output)
	(rect 1064 464 1240 480)
	(text "OUTPUT" (rect 1 0 39 10)(font "Arial" (font_size 6)))
	(text "HEX2[0..7]" (rect 90 0 141 12)(font "Intel Clear" ))
	(pt 0 8)
	(drawing
		(line (pt 0 8)(pt 52 8))
		(line (pt 52 4)(pt 78 4))
		(line (pt 52 12)(pt 78 12))
		(line (pt 52 12)(pt 52 4))
		(line (pt 78 4)(pt 82 8))
		(line (pt 82 8)(pt 78 12))
		(line (pt 78 12)(pt 82 8))
	)
	(annotation_block (location)(rect 1136 480 1192 608))
)
(pin
	(output)
	(rect 1072 624 1248 640)
	(text "OUTPUT" (rect 1 0 39 10)(font "Arial" (font_size 6)))
	(text "HEX3[0..7]" (rect 90 0 141 12)(font "Intel Clear" ))
	(pt 0 8)
	(drawing
		(line (pt 0 8)(pt 52 8))
		(line (pt 52 4)(pt 78 4))
		(line (pt 52 12)(pt 78 12))
		(line (pt 52 12)(pt 52 4))
		(line (pt 78 4)(pt 82 8))
		(line (pt 82 8)(pt 78 12))
		(line (pt 78 12)(pt 82 8))
	)
	(annotation_block (location)(rect 1136 640 1200 768))
)
(pin
	(output)
	(rect 1072 776 1248 792)
	(text "OUTPUT" (rect 1 0 39 10)(font "Arial" (font_size 6)))
	(text "HEX4[0..7]" (rect 90 0 141 12)(font "Intel Clear" ))
	(pt 0 8)
	(drawing
		(line (pt 0 8)(pt 52 8))
		(line (pt 52 4)(pt 78 4))
		(line (pt 52 12)(pt 78 12))
		(line (pt 52 12)(pt 52 4))
		(line (pt 78 4)(pt 82 8))
		(line (pt 82 8)(pt 78 12))
		(line (pt 78 12)(pt 82 8))
	)
	(annotation_block (location)(rect 1136 792 1200 920))
)
(pin
	(output)
	(rect 1080 928 1256 944)
	(text "OUTPUT" (rect 1 0 39 10)(font "Arial" (font_size 6)))
	(text "HEX5[0..7]" (rect 90 0 141 12)(font "Intel Clear" ))
	(pt 0 8)
	(drawing
		(line (pt 0 8)(pt 52 8))
		(line (pt 52 4)(pt 78 4))
		(line (pt 52 12)(pt 78 12))
		(line (pt 52 12)(pt 52 4))
		(line (pt 78 4)(pt 82 8))
		(line (pt 82 8)(pt 78 12))
		(line (pt 78 12)(pt 82 8))
	)
	(annotation_block (location)(rect 1136 944 1200 1072))
)
(symbol
	(rect 168 992 216 1024)
	(text "NOT" (rect 1 0 22 10)(font "Arial" (font_size 6)))
	(text "_snot1" (rect 3 21 36 33)(font "Intel Clear" ))
	(port
		(pt 0 16)
		(input)
		(text "IN" (rect 2 7 16 18)(font "Courier New" (bold))(invisible))
		(text "IN" (rect 2 7 16 18)(font "Courier New" (bold))(invisible))
		(line (pt 0 16)(pt 13 16))
	)
	(port
		(pt 48 16)
		(output)
		(text "OUT" (rect 32 7 53 18)(font "Courier New" (bold))(invisible))
		(text "OUT" (rect 32 7 53 18)(font "Courier New" (bold))(invisible))
		(line (pt 39 16)(pt 48 16))
	)
	(drawing
		(line (pt 13 25)(pt 13 7))
		(line (pt 13 7)(pt 31 16))
		(line (pt 13 25)(pt 31 16))
		(circle (rect 31 12 39 20))
	)
)
(symbol
	(rect 48 872 232 952)
	(text "Clock4Hz" (rect 5 0 54 12)(font "Arial" ))
	(text "inst4" (rect 8 64 32 76)(font "Intel Clear" ))
	(port
		(pt 0 32)
		(input)
		(text "clock50MHz" (rect 0 0 63 12)(font "Arial" ))
		(text "clock50MHz" (rect 21 27 84 39)(font "Arial" ))
		(line (pt 0 32)(pt 16 32))
	)
	(port
		(pt 184 32)
		(output)
		(text "clock4Hz" (rect 0 0 48 12)(font "Arial" ))
		(text "clock4Hz" (rect 123 27 171 39)(font "Arial" ))
		(line (pt 184 32)(pt 168 32))
	)
	(drawing
		(rectangle (rect 16 16 168 64))
	)
)
(symbol
	(rect 264 872 432 952)
	(text "BinaryCounter24Bit" (rect 5 0 110 12)(font "Arial" ))
	(text "inst5" (rect 8 64 32 76)(font "Intel Clear" ))
	(port
		(pt 0 32)
		(input)
		(text "clk" (rect 0 0 16 12)(font "Arial" ))
		(text "clk" (rect 21 27 37 39)(font "Arial" ))
		(line (pt 0 32)(pt 16 32))
	)
	(port
		(pt 0 48)
		(input)
		(text "reset" (rect 0 0 27 12)(font "Arial" ))
		(text "reset" (rect 21 43 48 55)(font "Arial" ))
		(line (pt 0 48)(pt 16 48))
	)
	(port
		(pt 168 32)
		(output)
		(text "count[23..0]" (rect 0 0 66 12)(font "Arial" ))
		(text "count[23..0]" (rect 92 27 158 39)(font "Arial" ))
		(line (pt 168 32)(pt 152 32)(line_width 3))
	)
	(drawing
		(rectangle (rect 16 16 152 64))
	)
)
(symbol
	(rect 792 560 976 720)
	(text "DisplayModule" (rect 5 0 92 15)(font "Intel Clear" (font_size 8)))
	(text "inst" (rect 8 144 25 156)(font "Intel Clear" ))
	(port
		(pt 0 32)
		(input)
		(text "DispCPU" (rect 0 0 51 15)(font "Intel Clear" (font_size 8)))
		(text "DispCPU" (rect 21 27 72 42)(font "Intel Clear" (font_size 8)))
		(line (pt 0 32)(pt 16 32))
	)
	(port
		(pt 0 48)
		(input)
		(text "DIN0[0..23]" (rect 0 0 67 15)(font "Intel Clear" (font_size 8)))
		(text "DIN0[0..23]" (rect 21 43 88 58)(font "Intel Clear" (font_size 8)))
		(line (pt 0 48)(pt 16 48)(line_width 3))
	)
	(port
		(pt 0 64)
		(input)
		(text "DIN1[0..23]" (rect 0 0 67 15)(font "Intel Clear" (font_size 8)))
		(text "DIN1[0..23]" (rect 21 59 88 74)(font "Intel Clear" (font_size 8)))
		(line (pt 0 64)(pt 16 64)(line_width 3))
	)
	(port
		(pt 0 80)
		(input)
		(text "DPIN0[0..5]" (rect 0 0 67 15)(font "Intel Clear" (font_size 8)))
		(text "DPIN0[0..5]" (rect 21 75 88 90)(font "Intel Clear" (font_size 8)))
		(line (pt 0 80)(pt 16 80)(line_width 3))
	)
	(port
		(pt 0 96)
		(input)
		(text "DPIN1[0..5]" (rect 0 0 67 15)(font "Intel Clear" (font_size 8)))
		(text "DPIN1[0..5]" (rect 21 91 88 106)(font "Intel Clear" (font_size 8)))
		(line (pt 0 96)(pt 16 96)(line_width 3))
	)
	(port
		(pt 184 32)
		(output)
		(text "HEX0[0..7]" (rect 0 0 62 15)(font "Intel Clear" (font_size 8)))
		(text "HEX0[0..7]" (rect 101 27 163 42)(font "Intel Clear" (font_size 8)))
		(line (pt 184 32)(pt 168 32)(line_width 3))
	)
	(port
		(pt 184 48)
		(output)
		(text "HEX1[0..7]" (rect 0 0 62 15)(font "Intel Clear" (font_size 8)))
		(text "HEX1[0..7]" (rect 101 43 163 58)(font "Intel Clear" (font_size 8)))
		(line (pt 184 48)(pt 168 48)(line_width 3))
	)
	(port
		(pt 184 64)
		(output)
		(text "HEX2[0..7]" (rect 0 0 62 15)(font "Intel Clear" (font_size 8)))
		(text "HEX2[0..7]" (rect 101 59 163 74)(font "Intel Clear" (font_size 8)))
		(line (pt 184 64)(pt 168 64)(line_width 3))
	)
	(port
		(pt 184 80)
		(output)
		(text "HEX3[0..7]" (rect 0 0 62 15)(font "Intel Clear" (font_size 8)))
		(text "HEX3[0..7]" (rect 101 75 163 90)(font "Intel Clear" (font_size 8)))
		(line (pt 184 80)(pt 168 80)(line_width 3))
	)
	(port
		(pt 184 96)
		(output)
		(text "HEX4[0..7]" (rect 0 0 62 15)(font "Intel Clear" (font_size 8)))
		(text "HEX4[0..7]" (rect 101 91 163 106)(font "Intel Clear" (font_size 8)))
		(line (pt 184 96)(pt 168 96)(line_width 3))
	)
	(port
		(pt 184 112)
		(output)
		(text "HEX5[0..7]" (rect 0 0 62 15)(font "Intel Clear" (font_size 8)))
		(text "HEX5[0..7]" (rect 101 107 163 122)(font "Intel Clear" (font_size 8)))
		(line (pt 184 112)(pt 168 112)(line_width 3))
	)
	(drawing
		(rectangle (rect 16 16 168 144))
	)
)
(connector
	(pt 1048 168)
	(pt 992 168)
	(bus)
)
(connector
	(pt 1056 320)
	(pt 1008 320)
	(bus)
)
(connector
	(pt 1072 784)
	(pt 1024 784)
	(bus)
)
(connector
	(pt 1080 936)
	(pt 1008 936)
	(bus)
)
(connector
	(pt 992 592)
	(pt 976 592)
	(bus)
)
(connector
	(pt 1008 608)
	(pt 976 608)
	(bus)
)
(connector
	(pt 992 168)
	(pt 992 592)
	(bus)
)
(connector
	(pt 1008 320)
	(pt 1008 608)
	(bus)
)
(connector
	(pt 1024 656)
	(pt 976 656)
	(bus)
)
(connector
	(pt 1008 672)
	(pt 976 672)
	(bus)
)
(connector
	(pt 1024 784)
	(pt 1024 656)
	(bus)
)
(connector
	(pt 1008 936)
	(pt 1008 672)
	(bus)
)
(connector
	(pt 792 592)
	(pt 640 592)
)
(connector
	(pt 640 592)
	(pt 640 536)
)
(connector
	(pt 232 904)
	(pt 264 904)
)
(connector
	(pt 216 1008)
	(pt 248 1008)
)
(connector
	(pt 248 1008)
	(pt 248 920)
)
(connector
	(pt 264 920)
	(pt 248 920)
)
(connector
	(pt 432 904)
	(pt 696 904)
	(bus)
)
(connector
	(pt 696 904)
	(pt 696 624)
	(bus)
)
(connector
	(pt 792 624)
	(pt 696 624)
	(bus)
)
(connector
	(pt 512 536)
	(pt 640 536)
)
(connector
	(pt 1024 624)
	(pt 1024 472)
	(bus)
)
(connector
	(pt 1024 472)
	(pt 1064 472)
	(bus)
)
(connector
	(pt 976 624)
	(pt 1024 624)
	(bus)
)
(connector
	(pt 976 640)
	(pt 1048 640)
	(bus)
)
(connector
	(pt 1048 640)
	(pt 1048 632)
	(bus)
)
(connector
	(pt 1048 632)
	(pt 1072 632)
	(bus)
)
(connector
	(pt 792 656)
	(pt 600 656)
	(bus)
)
